# setting LC_ALL to "C"
# --> Including file '/home/sponce/dev4/Gaudi/GaudiExamples/options/CounterAlg.py'
# <-- End of file '/home/sponce/dev4/Gaudi/GaudiExamples/options/CounterAlg.py'
ApplicationMgr    SUCCESS
====================================================================================================================================
                                                   Welcome to ApplicationMgr (GaudiCoreSvc v34r0)
                                          running on lblhcbpr11.cern.ch on Mon Aug 10 10:50:10 2020
====================================================================================================================================
ApplicationMgr       INFO Application Manager Configured successfully
EventLoopMgr      WARNING Unable to locate service "EventSelector"
EventLoopMgr      WARNING No events will be processed from external input.
ApplicationMgr       INFO Application Manager Initialized successfully
ApplicationMgr       INFO Application Manager Started successfully
CounterAlg           INFO Super nice message, max 5 times
CounterAlg           INFO Super nice message, max 5 times
CounterAlg           INFO Super nice message, max 5 times
CounterAlg           INFO Super nice message, max 5 times
CounterAlg           INFO Suppressing message: 'Super nice message, max 5 times'
CounterAlg           INFO Number of counters : 8
 | "CounterAlg/Super nice message, max 5 times"    |       500 |
 | "CounterAlg/Stat"                               |       500 |       1750 |     3.5000 |     0.0000 |      3.5000 |      3.5000 |
 | "CounterAlg/Sigma"                              |       500 |       1250 |     2.5000 |     0.0000 |
 | "CounterAlg/Binomial"                           |       500 |        500 |( 100.0000 +- 0.000000)% |
 | "CounterAlg/Basic"                              |       500 |
 | "CounterAlg/AverageNonAtomic"                   |       500 |        750 |     1.5000 |
 | "CounterAlg/AverageInteger"                     |       500 |        500 |     1.0000 |
 | "CounterAlg/Average"                            |       500 |        750 |     1.5000 |
ApplicationMgr       INFO Application Manager Stopped successfully
EventLoopMgr         INFO Histograms converted successfully according to request.
ApplicationMgr       INFO Application Manager Finalized successfully
ApplicationMgr       INFO Application Manager Terminated successfully
